 "3";"Remove Curse";"3rd level Abjuration";"1 action";"Touch";"V, S";"Instantaneous";" At your touch, all curses affecting one creature or object end. If the object is a cursed magic item, its curse remains, but the spell breaks its owner's attunement to the object so it can be removed or discarded. "
 "3";"Revivify";"3rd level Conjuration";"1 action";"Touch";"V, S, M ";"Instantaneous";"(diamonds worth 300 gp, which the spell consumes) You touch a creature that has died within the last minute. That creature returns to life with 1 hit point. This spell can't return to life a creature that has died of old age, nor can it restore any missing body parts."
 "4";"Aura of Life";"4th level Abjuration";"1 action";"Self (30-foot radius)";"V";"Concentration, up to 10 minutes";" Life-preserving energy radiates from you in an aura with a 30-foot radius. Until the spll ends, the aura moves with you, centered on you. Each nonhostile creature in the aura (including you) has resistance to necrotic damage, and its hit point maximum can't be reduced. In addition, a nonhostile, living creature regains 1 hit point when it starts its turn in the arua with 0 hit points."
 "4";"Aura of Purity";"4th level Abjuration";"1 action";"Self (30-foot radius)";"V";"Concentration, up to 10 minutes";" Purifying energy radiates from you in an aura with a 30-foot radius. Until the spell ends, the aura moves with you, centered on you. Each nonhostile creature in the aura (including you) can't become diseased, has resistance to poison damage, and has advantage on saving throws against effects that cause any of the following conditions: blnded, charmed, deafended, frightened, paralyzed, poisoned, and stunned."
